2020-11-05 04:53:29,397 INFO [hr.java.covidportal.main] h.j.c.m.Glavna [Glavna.java:26] Pokrenuli smo aplikaciju.
2020-11-05 05:12:41,502 ERROR [hr.java.covidportal.main] h.j.c.m.Glavna [Glavna.java:94] Pogreška u formatu podataka, molimo ponovite unos!
java.util.InputMismatchException: null
	at java.base/java.util.Scanner.throwFor(Scanner.java:939)
	at java.base/java.util.Scanner.next(Scanner.java:1594)
	at java.base/java.util.Scanner.nextInt(Scanner.java:2258)
	at java.base/java.util.Scanner.nextInt(Scanner.java:2212)
	at hr.java.covidportal.hr.java.covidportal.main.Glavna.unosZupanije(Glavna.java:89)
	at hr.java.covidportal.hr.java.covidportal.main.Glavna.hr.java.covidportal.main(Glavna.java:34)
2020-11-05 05:14:15,038 ERROR [hr.java.covidportal.main] h.j.c.m.Glavna [Glavna.java:171] Pogreška u formatu podataka, molimo ponovite unos!
java.util.InputMismatchException: null
	at java.base/java.util.Scanner.throwFor(Scanner.java:939)
	at java.base/java.util.Scanner.next(Scanner.java:1594)
	at java.base/java.util.Scanner.nextInt(Scanner.java:2258)
	at java.base/java.util.Scanner.nextInt(Scanner.java:2212)
	at hr.java.covidportal.hr.java.covidportal.main.Glavna.unosOsobe(Glavna.java:166)
	at hr.java.covidportal.hr.java.covidportal.main.Glavna.hr.java.covidportal.main(Glavna.java:70)
2020-11-05 05:14:42,206 ERROR [hr.java.covidportal.main] h.j.c.m.Glavna [Glavna.java:251] Uneseni broj osoba ne odgovara!
hr.java.covidportal.Iznimke.BrojKontaktiranihOsoba: Uneseni broj osoba ne odgovara!
	at hr.java.covidportal.hr.java.covidportal.main.Glavna.provjeraBrojaOsoba(Glavna.java:289)
	at hr.java.covidportal.hr.java.covidportal.main.Glavna.unosKontaktiranihOsoba(Glavna.java:242)
	at hr.java.covidportal.hr.java.covidportal.main.Glavna.hr.java.covidportal.main(Glavna.java:72)
2020-11-05 05:14:44,817 ERROR [hr.java.covidportal.main] h.j.c.m.Glavna [Glavna.java:251] Uneseni broj osoba ne odgovara!
hr.java.covidportal.Iznimke.BrojKontaktiranihOsoba: Uneseni broj osoba ne odgovara!
	at hr.java.covidportal.hr.java.covidportal.main.Glavna.provjeraBrojaOsoba(Glavna.java:289)
	at hr.java.covidportal.hr.java.covidportal.main.Glavna.unosKontaktiranihOsoba(Glavna.java:242)
	at hr.java.covidportal.hr.java.covidportal.main.Glavna.hr.java.covidportal.main(Glavna.java:72)
2020-11-05 05:15:08,267 ERROR [hr.java.covidportal.main] h.j.c.m.Glavna [Glavna.java:271] Odabrana osoba se već nalazi među kontaktiranim osobama. Molimo Vas da odaberete neku drugu osobu.
hr.java.covidportal.Iznimke.DuplikatKontaktiraneOsobe: Odabrana osoba se već nalazi među kontaktiranim osobama. Molimo Vas da odaberete neku drugu osobu.
	at hr.java.covidportal.hr.java.covidportal.main.Glavna.provjeraKontaktiraneOsobe(Glavna.java:296)
	at hr.java.covidportal.hr.java.covidportal.main.Glavna.unosKontaktiranihOsoba(Glavna.java:267)
	at hr.java.covidportal.hr.java.covidportal.main.Glavna.hr.java.covidportal.main(Glavna.java:72)
2020-11-12 05:56:56,563 ERROR [hr.java.covidportal.main] h.j.c.m.Glavna [Glavna.java:137] Pogreška u formatu podataka, molimo ponovite unos!
java.util.InputMismatchException: null
	at java.base/java.util.Scanner.throwFor(Scanner.java:939)
	at java.base/java.util.Scanner.next(Scanner.java:1594)
	at java.base/java.util.Scanner.nextInt(Scanner.java:2258)
	at java.base/java.util.Scanner.nextInt(Scanner.java:2212)
	at hr.java.covidportal.hr.java.covidportal.main.Glavna.unosZupanije(Glavna.java:128)
	at hr.java.covidportal.hr.java.covidportal.main.Glavna.hr.java.covidportal.main(Glavna.java:42)
2020-11-12 06:02:34,108 ERROR [hr.java.covidportal.main] h.j.c.m.Glavna [Glavna.java:315] Uneseni broj osoba ne odgovara!
